amazon
10
3.4
2.86
amazon
50
16.03
13.12
amazon
100
32.43
25.81
newyorktimes
10
1.82
1.39
newyorktimes
50
8.54
6.33
newyorktimes
100
16.76
12.16
wsj
10
2.63
2.34
wsj
50
11.96
10.56
wsj
100
23.97
22.36
wikipedia
10
0.5
0.36
wikipedia
50
2.34
1.84
wikipedia
100
4.44
3.24
